<?xml version="1.0" encoding="UTF-8"?>
<svg width="93px" height="200px" viewBox="0 0 93 200" version="1.1" xmlns="http://www.w3.org/2000/svg" xmlns:xlink="http://www.w3.org/1999/xlink">
    <!-- Generator: Sketch 63.1 (92452) - https://sketch.com -->
    <title>Profile Picture</title>
    <desc>Created with Sketch.</desc>
    <g id="Profile-Picture" stroke="none" stroke-width="1" fill="none" fill-rule="evenodd">
        <g id="Cracked-iPhone-11">
            <path d="M89.3225759,0.954045371 C90.4940198,1.5765707 91.4133758,2.49010132 92.0398709,3.65412249 L92.1188033,3.80389089 C92.6943503,4.9208363 93,6.10919431 93,9.15673286 L93,190.843267 C93,194.027263 92.6663659,195.181856 92.0398709,196.345878 C91.4133758,197.509899 90.4940198,198.423429 89.3225759,199.045955 L89.1718524,199.124387 C88.0477845,199.696287 86.8518485,200 83.7848764,200 L9.21512362,200 C6.01082438,200 4.84886805,199.66848 3.67742414,199.045955 C2.50598023,198.423429 1.5866242,197.509899 0.960129138,196.345878 L0.906379316,196.244611 C0.323276189,195.129849 0.00931605153,193.969613 0,190.978488 L0,9.15673286 C0,5.97273736 0.333634081,4.81814365 0.960129138,3.65412249 C1.5866242,2.49010132 2.50598023,1.5765707 3.67742414,0.954045371 L3.7793363,0.900636129 C4.90120691,0.32122778 6.06884184,0.00925702125 9.07904094,0 L83.7848764,0 C86.9891756,0 88.151132,0.33152004 89.3225759,0.954045371 Z M82.5277378,1.33928571 L10.6090253,1.33928571 L10.3379764,1.33928571 C7.32196731,1.35866457 6.1873013,1.69218506 5.04363735,2.30314412 C3.86633622,2.93207257 2.9423834,3.85499951 2.31275587,5.03099346 L2.23342878,5.18230234 C1.66363721,6.29389403 1.357056,7.47549528 1.34782609,10.4535909 L1.34782609,189.409798 C1.34782609,192.626543 1.68312834,193.793013 2.31275587,194.969007 C2.9423834,196.145 3.86633622,197.067927 5.04363735,197.696856 L5.19511442,197.776095 C6.29108067,198.33663 7.45502654,198.642154 10.3379764,198.660714 L10.6090253,198.660714 L82.3909747,198.660714 C85.6112954,198.660714 86.7790615,198.325784 87.9563627,197.696856 C89.1336638,197.067927 90.0576166,196.145 90.6872441,194.969007 L90.7665712,194.817698 C91.3277296,193.722948 91.6335932,192.560295 91.6521739,189.680546 L91.6521739,189.409798 L91.6521739,10.5902021 C91.6521739,7.37345694 91.3168717,6.20698741 90.6872441,5.03099346 C90.0576166,3.85499951 89.1336638,2.93207257 87.9563627,2.30314412 L87.8048856,2.22390511 C86.6920583,1.65474619 85.5091437,1.34850538 82.5277378,1.33928571 L82.5277378,1.33928571 Z" id="Shape" fill="#A4254A"></path>
            <path d="M64,0 C64,0.14911373 64,0.695162314 64,1.63814575 L64,2.57238056 C64,3.98685572 63.804655,4.85214615 63.4378378,5.61263997 C63.0710207,6.3731338 62.5327314,6.96997381 61.846843,7.37669036 C61.1609546,7.78340691 60.3805503,8 59.1048369,8 L33.8951631,8 C32.6194497,8 31.8390454,7.78340691 31.153157,7.37669036 C30.4672686,6.96997381 29.9289793,6.3731338 29.5621622,5.61263997 C29.195345,4.85214615 29,3.98685572 29,2.57238056 L29,1.63814575 C29,0.695162314 29,0.14911373 29,0 L64,0 Z" id="Rectangle" fill="#A4254A"></path>
            <polyline id="Path-2" stroke="#A4254A" stroke-width="0.5" stroke-linecap="round" stroke-linejoin="round" points="7 199 20.0402685 152.608964 74 135.128284 55.5637584 84.0309119 11.4966443 54"></polyline>
            <polyline id="Path-3" stroke="#A4254A" stroke-width="0.8" stroke-linecap="round" stroke-linejoin="round" points="55 84 66.216418 43.8078354 67 41"></polyline>
            <polyline id="Path-4" stroke="#A4254A" stroke-width="0.6" stroke-linecap="round" stroke-linejoin="round" points="92 137.844156 36.6134748 147 29 87"></polyline>
            <polyline id="Path-5" stroke="#A4254A" stroke-width="0.3" stroke-linecap="round" stroke-linejoin="round" points="6.84848485 199 5.15151515 188.844156 10 182 2 186.857143"></polyline>
            <line x1="7" y1="198" x2="19" y2="191" id="Path-6" stroke="#A4254A" stroke-width="0.4" stroke-linecap="round" stroke-linejoin="round"></line>
            <line x1="8" y1="193" x2="7" y2="191" id="Path-7" stroke="#A4254A" stroke-width="0.4" stroke-linecap="round" stroke-linejoin="round"></line>
            <line x1="12" y1="197" x2="26" y2="194" id="Path-8" stroke="#A4254A" stroke-width="0.4" stroke-linecap="round" stroke-linejoin="round" transform="translate(19.000000, 195.500000) scale(1, -1) translate(-19.000000, -195.500000) "></line>
            <line x1="11.8888889" y1="181" x2="8" y2="165.111111" id="Path-9" stroke="#A4254A" stroke-width="0.3" stroke-linecap="round" stroke-linejoin="round"></line>
        </g>
    </g>
</svg>