<?xml version="1.0" encoding="UTF-8"?>
<svg width="125px" height="125px" viewBox="0 0 125 125" version="1.1" xmlns="http://www.w3.org/2000/svg" xmlns:xlink="http://www.w3.org/1999/xlink">
    <!-- Generator: Sketch 63.1 (92452) - https://sketch.com -->
    <title>compute</title>
    <desc>Created with Sketch.</desc>
    <g id="compute" stroke="none" stroke-width="1" fill="none" fill-rule="evenodd">
        <g transform="translate(29.000000, 15.000000)" stroke="#8A4222">
            <g id="Pins" transform="translate(53.000000, 5.000000)" stroke-width="0.75">
                <rect id="Rectangle" x="0.375" y="0.375" width="13.25" height="4.25" rx="2.125"></rect>
                <rect id="Rectangle" x="0.375" y="10.375" width="13.25" height="4.25" rx="2.125"></rect>
                <rect id="Rectangle" x="0.375" y="20.375" width="13.25" height="4.25" rx="2.125"></rect>
                <rect id="Rectangle" x="0.375" y="30.375" width="13.25" height="4.25" rx="2.125"></rect>
                <rect id="Rectangle" x="0.375" y="40.375" width="13.25" height="4.25" rx="2.125"></rect>
                <rect id="Rectangle" x="0.375" y="50.375" width="13.25" height="4.25" rx="2.125"></rect>
                <rect id="Rectangle" x="0.375" y="60.375" width="13.25" height="4.25" rx="2.125"></rect>
                <rect id="Rectangle" x="0.375" y="70.375" width="13.25" height="4.25" rx="2.125"></rect>
                <rect id="Rectangle" x="0.375" y="80.375" width="13.25" height="4.25" rx="2.125"></rect>
            </g>
            <g id="Pins" transform="translate(0.000000, 5.000000)" stroke-width="0.75">
                <rect id="Rectangle" x="0.375" y="0.375" width="13.25" height="4.25" rx="2.125"></rect>
                <rect id="Rectangle" x="0.375" y="10.375" width="13.25" height="4.25" rx="2.125"></rect>
                <rect id="Rectangle" x="0.375" y="20.375" width="13.25" height="4.25" rx="2.125"></rect>
                <rect id="Rectangle" x="0.375" y="30.375" width="13.25" height="4.25" rx="2.125"></rect>
                <rect id="Rectangle" x="0.375" y="40.375" width="13.25" height="4.25" rx="2.125"></rect>
                <rect id="Rectangle" x="0.375" y="50.375" width="13.25" height="4.25" rx="2.125"></rect>
                <rect id="Rectangle" x="0.375" y="60.375" width="13.25" height="4.25" rx="2.125"></rect>
                <rect id="Rectangle" x="0.375" y="70.375" width="13.25" height="4.25" rx="2.125"></rect>
                <rect id="Rectangle" x="0.375" y="80.375" width="13.25" height="4.25" rx="2.125"></rect>
            </g>
            <path d="M48.3083444,1.5 L18.6916556,1.5 C16.4418952,1.5 15.6049961,1.68122653 14.7768612,2.12411791 C14.0643526,2.50517167 13.5051717,3.06435259 13.1241179,3.77686118 C12.6812265,4.60499605 12.5,5.44189522 12.5,7.6916556 L12.5,87.3083444 C12.5,89.5581048 12.6812265,90.3950039 13.1241179,91.2231388 C13.5051717,91.9356474 14.0643526,92.4948283 14.7768612,92.8758821 C15.6049961,93.3187735 16.4418952,93.5 18.6916556,93.5 L48.3083444,93.5 C50.5581048,93.5 51.3950039,93.3187735 52.2231388,92.8758821 C52.9356474,92.4948283 53.4948283,91.9356474 53.8758821,91.2231388 C54.3187735,90.3950039 54.5,89.5581048 54.5,87.3083444 L54.5,7.6916556 C54.5,5.44189522 54.3187735,4.60499605 53.8758821,3.77686118 C53.4948283,3.06435259 52.9356474,2.50517167 52.2231388,2.12411791 C51.3950039,1.68122653 50.5581048,1.5 48.3083444,1.5 Z" id="Rectangle" stroke-width="3"></path>
        </g>
    </g>
</svg>