<?xml version="1.0" encoding="UTF-8"?>
<svg width="125px" height="125px" viewBox="0 0 125 125" version="1.1" xmlns="http://www.w3.org/2000/svg" xmlns:xlink="http://www.w3.org/1999/xlink">
    <!-- Generator: Sketch 63.1 (92452) - https://sketch.com -->
    <title>car-industry</title>
    <desc>Created with Sketch.</desc>
    <g id="car-industry" stroke="none" stroke-width="1" fill="none" fill-rule="evenodd">
        <g id="car" transform="translate(1.000000, 39.000000)" fill-rule="nonzero" stroke="#8A4222">
            <path d="M102.999321,27.5 C100.382875,27.5 98.0119647,28.6197543 96.2942046,30.4234024 C94.5676064,32.2363305 93.5,34.739773 93.5,37.4992871 C93.5,40.259766 94.5676002,42.7632386 96.2939184,44.5761188 C98.0118993,46.3802438 100.383126,47.5 102.999321,47.5 C105.61643,47.5 107.987689,46.3802529 109.705626,44.5764194 C111.4324,42.7633065 112.5,40.2594995 112.5,37.4992871 C112.5,34.7393684 111.432284,32.2361475 109.705659,30.423437 C107.987516,28.6196318 105.616047,27.5 102.999321,27.5 Z" id="Shape"></path>
            <path d="M12.9993211,27.5 C10.3828748,27.5 8.01196466,28.6197543 6.2942046,30.4234024 C4.56760637,32.2363305 3.5,34.739773 3.5,37.4992871 C3.5,40.259766 4.56760022,42.7632386 6.29391836,44.5761188 C8.01189934,46.3802438 10.3831264,47.5 12.9993211,47.5 C15.6164305,47.5 17.987689,46.3802529 19.7056257,44.5764194 C21.4323999,42.7633065 22.5,40.2594995 22.5,37.4992871 C22.5,34.7393684 21.432284,32.2361475 19.7056587,30.423437 C17.9875157,28.6196318 15.6160469,27.5 12.9993211,27.5 Z" id="Shape"></path>
            <path d="M119.008083,22.8888081 C117.507485,20.4731925 114.62519,16.6243684 113.12596,15.7227654 C111.625362,14.8225801 109.731166,16.1324561 109.731166,16.1324561 C106.809237,10.3174003 105.151474,5.15870016 101.442347,3.03086038 C97.7318531,0.901602995 85.8104404,0 79.1001187,0 C72.389797,0 62.6003806,0.654938025 57.6270892,1.30987605 C52.6537978,1.96481407 50.601068,3.02944277 49.4161701,4.34073643 C48.2326388,5.65061248 44.6014118,14.7403584 44.6014118,14.7403584 C41.2858842,15.1500491 17.3255257,15.5781687 11.0498032,15.599433 C9.76240546,15.6036858 8.56384087,17.5032896 8.56384087,17.5032896 C7.89690869,17.2580422 7.2614098,17.1347098 6.1052118,17.1347098 C4.95038047,17.1347098 3.94451554,18.4856966 3.94451554,20.1443059 C3.94451554,21.8014976 5.36584641,22.9072371 5.36584641,22.9072371 C-0.790976255,25.0577587 0.0372223106,31.2087892 0.0372223106,31.2087892 C0.339255121,31.3774854 1.11142045,31.6978663 2.21158521,32.1103922 C4.22058173,28.2842499 8.13197495,25.6829268 12.6187338,25.6829268 C19.1486559,25.6829268 24.46088,31.1931954 24.46088,37.9651412 C24.46088,38.0941442 24.4581467,38.2217295 24.4540467,38.3493148 C24.7465128,38.3734143 25.0171124,38.3847552 25.2603786,38.3847552 C30.6477693,38.3847552 84.2907097,39 89.679467,39 C90.282166,39 90.9955647,38.9872415 91.79233,38.9645596 C91.7663634,38.635673 91.7540634,38.3025335 91.7540634,37.9665588 C91.7540634,31.1946131 97.0662875,25.6843444 103.594843,25.6843444 C110.124765,25.6843444 115.436989,31.1946131 115.436989,37.9665588 C121.510445,37.9410418 122.525877,36.2923558 122.956376,32.8390462 C123.388242,29.3588019 120.507314,25.3044237 119.008083,22.8888081 Z M67.9158366,11.3636 C67.9158366,13.4106357 67.872366,16.3791211 67.3102463,16.828505 C66.7466276,17.2793065 66.9295039,17.0737523 56.5730101,17.0737523 C48.2221595,17.0737523 48.1951778,16.5421468 47.7619709,16.0913453 C47.3287639,15.6405438 47.3617416,13.7579514 48.4979729,11.20908 C49.6342043,8.66020864 50.1528534,7.05263349 53.0443973,6.69397695 C55.0845171,6.44164153 66.1770129,5.89727745 67.1033862,6.35658464 C68.401508,7.00301698 67.9158366,9.31656428 67.9158366,11.3636 Z M92.5031007,17.2906474 C91.9924114,18.1497219 85.8405928,17.6904147 81.2811827,17.5982698 C76.7217726,17.5061248 73.7886208,17.8038239 72.8643762,17.1219512 C72.0225484,16.5024536 72.159419,13.1256952 72.159419,11.7945549 C72.159419,10.4634146 72.493501,7.52044637 73.1822693,6.8811021 C73.851905,6.26018683 74.8497359,5.9596525 81.0457064,6.51252226 C83.9773865,6.774781 87.2519789,7.53604013 88.6545347,8.64177965 C90.0570905,9.74751917 90.5677797,11.1807277 91.3330778,12.7358511 C92.0998475,14.2909745 93.0137899,16.4301552 92.5031007,17.2906474 Z" id="Shape" stroke-width="0.75" stroke-linejoin="round"></path>
        </g>
    </g>
</svg>